
{"title": "Jobs",
    "link": "http://spiel.fremdeweltganznah.de/index.php?id=37",
    "description": "",
    "modified": "2013-06-04T04:03:40Z",
    "generator": "http://spiel.fremdeweltganznah.de/",
    "items": [{"author":"-2.9702892","authorEmail":"-57.0110197","bodytext":"<div class=\"box success\">F\u00fcr den sechsten Band von Harry Potter (&quot;Harry Potter und der Halbblut-Prinz&quot;) betrug der Papierbedarf f\u00fcr die deutsche Erstauflage des Bestsellers 1.500 Tonnen.\r\n Um den Papierbedarf des Bands ohne Kahlschlag zu decken, wurde ein etwa 600 Fu\u00dfballfelder gro\u00dfer, nachhaltig bewirtschafteter Wald ben\u00f6tigt. Das eingesetzte Papier wurde eigens von der Papierfabrik Schleipen entwickelt. Der Recyclingfaseranteil liegt bei etwa 40 Prozent, die restlichen 60 Prozent bestehen aus FSC-zertifizierten Frischfasern.<br \/> <br \/> Der Carlsen-Verlag kommt mit der Verwendung des Papiers dem <b>Wunsch der Autorin Joane Rowling<\/b> nach, ihre B\u00fccher weltweit auf \u00f6kologisch vertr\u00e4glichem Papier zu drucken. <br \/> <br \/> Neben dem Harry-Potter-Band wurden weitere Bestseller wie &quot;Der Schwarm&quot;, &quot;Tintenblut&quot; und &quot;Skogland&quot; auf FSC-Papier gedruckt. Etwa die H\u00e4lfte aller Neuerscheinungen an Taschenb\u00fcchern tragen das FSC-Siegel, zum Beispiel Taschenb\u00fccher des Piper-Verlags und der Randomhouse-Verlagsgruppe. \r\nQuelle: http:\/\/www.faszination-regenwald.de\/info-center\/regenwaldschutz\/verzicht_tropenholz.htm \r\nDas FSC-Label findet sich oft beim Buch-Impressum, im Buch auf einer der ersten oder letzten Seite<\/div>","media": {"m":"pin0.gif"},"falMedia":{"0000000001e47bbf000000005eecbe53":{"alternative":null,"description":"","link":"","originalResource":{"publicUrl":"fileadmin\/user_upload\/lexikonbilder\/fsc-mix.jpg"},"title":"FSC Mix"},"0000000001e47bb9000000005eecbe53":{"alternative":"FSC-Label \r\n100% \r\nAus vorbildlich bewirtschafteten W\u00e4ldern\r\nFSC\u00ae C000000","description":"","link":"","originalResource":{"publicUrl":"fileadmin\/user_upload\/lexikonbilder\/fsc100.jpg"},"title":"FSC 100%"}},"pid":1,"teaser":"","title":"Harry Potter und der Regenwald","uid":3},{"author":"","authorEmail":"","bodytext":" Das giftigste Tier der Welt, oder genauer das Tier mit dem st\u00e4rksten Gift, ist der sogenannte Schreckliche Pfeilgiftfrosch. Er kommt in einer kleineren, kimatisch tropisch warmen, Region in Kolumbien vor. Indianer benutzten das starke Hautgift des giftigsten Tieres der Welt fr\u00fcher um ihre Pfeilspitzen zu vergiften.Daher kommt der Name Pfeilgiftfrosch. \r\nDie Tierart ist meist sehr auff\u00e4llig gef\u00e4rbt - oft knallgelb, gr\u00fcn oder orange. Das Gift ist in der Haut und soll andere Tiere davon abhalten die Giftfr\u00f6sche zu fressen. Das Gift eines Frosches reicht aus um mindestens 20 Menschen zu t\u00f6ten.\r\n Allerdings sind Vergiftungen mit dem Schrecklichen Pfeilgiftfrosch selten, da das giftigste Tier der Welt das Gift nicht zum Angreifen verwendet.\r\nQuelle: http:\/\/www.europa-daten.de\/Rekorde\/Giftigste_Tier.htm","falMedia":{"0000000001e47ba2000000005eecbe53":{"alternative":null,"description":null,"link":"","originalResource":{"publicUrl":"fileadmin\/user_upload\/lexikonbilder\/800px-Schrecklicherpfeilgiftfrosch-01.jpg"},"title":null}},"pid":1,"teaser":"Das giftigste Tier der Welt","title":"Pfeilgiftfrosch","uid":4},{"author":"-2.9702892","authorEmail":"-57.0110197","bodytext":"Der Amazonas ist ein sehr langer Fluss. Es gibt sehr viel Streit, ob der Nil oder der Amazonas der l\u00e4ngere Fluss ist. Klar ist, dass der Amazonas der wasserreichste Fluss auf der Erde ist. Der Amazonas ist ein Fluss in Amerika er flie\u00dft durch S\u00fcdamerika und m\u00fcndet im Atlantischen Ozean. Er durchquert von West nach Ost eine Landschaft, die als Amazonasbecken bezeichnet wird. Den gr\u00f6\u00dften Teil seines Laufes legt er durch Brasilien zur\u00fcck. Im Tagesdurchschnitt lagert er etwa drei Millionen Tonnen Sand an seiner M\u00fcndung ab. Die Wasser- und Sandmenge des Amazonas ist so gro\u00df, dass sich Salzgehalt und Farbe des Atlantischen Ozeans bis in eine Entfernung von 320 Kilometern von der M\u00fcndung \u00e4ndern. Pro Sekunde flie\u00dfen 1.000.000 \u201eBadewannen\u201c, also 200.000.000 Liter Wasser in den Ozean. Das S\u00fc\u00dfwasser des Amazonas ist im Meerwasser des atlantischen Ozean ist noch 100 Kilometer vom Land zu schmecken. Der Fluss ist 100 Meter tief und kilometerbreit. Der Madeira in Rond\u00f4nia ist der l\u00e4ngste und wasserreichste Nebenfluss des Amazonas. Man sch\u00e4tzt, dass der Amazonas \u00fcber 6.500 Kilometer lang ist. Mit seinen Nebenfl\u00fcssen, deren Zahl mehrere 100 betr\u00e4gt, hat der Amazonas ein Einzugsgebiet von insgesamt mehr als sieben Millionen Quadratkilometern, von denen etwa die H\u00e4lfte in Brasilien liegt, w\u00e4hrend der Rest auf die L\u00e4nder Peru, Ecuador, Bolivien und Venezuela verteilt ist. Der Amazonas und seine Nebenfl\u00fcsse werden als Verkehrswege genutzt. \r\nInsgesamt gibt es dort ca. 80.000 Kilometer Wasserwege, die mit Schiffen befahren werden k\u00f6nnen. Im Amazonas leben mehr verschiedene Fischarten als im gesamten Atlantik \u2013 \u00fcber 3500 sollen es sein z.B. Delphine, sie leben nicht nur im offenen Meer. Flussdelphine tummeln sich im Amazonas und in den Nebenfl\u00fcssen herum. Sie sind sehr gef\u00e4hrdet, denn die Fl\u00fcsse haben kein klares Wasser mehr. Die Fl\u00fcsse sind immer mehr verschmutzt. Nach der Regenzeit steht das Wasser 15 Meter hoch auf dem Land und bleibt 6 Monate. Viele Landtiere m\u00fcssen fliehen. \r\nQuelle: http:\/\/grundschulwiki.zum.de\/wiki\/Amazonas","falMedia":[],"pid":1,"teaser":"","title":"Amazonas","uid":2},{"author":"","authorEmail":"","bodytext":"Die Bezeichnung <b>lokale Gemeinschaften<\/b> wird f\u00fcr kleine, zusammengeh\u00f6rige Bev\u00f6lkerungsgruppen verwendet, die in traditioneller Weise \u2013 ohne den Einsatz industrieller Technologien \u2013 eine potentiell bedarfswirtschaftlich orientierte Lebensweise f\u00fchren (Subsistenzwirtschaft). Dabei kann es sich beispielsweise um Bauern, Fischer, J\u00e4ger und Sammler, l\u00e4ndliche Gemeinschaften oder Nomaden\u00adgruppen handeln. Bis in die 1980er Jahre wurden solche Gruppen noch unter der Bezeichnung \u201eNaturv\u00f6lker&quot; zusammengefasst, die in popul\u00e4ren Ver\u00f6ffentlichungen immer noch zu finden ist. Der Begriff wurde jedoch als abwertend und irref\u00fchrend (zumeist im Sinne von \u201ekulturlose V\u00f6lker&quot;) aus der Wissenschaft verbannt. Indes existiert im englischsprachigen Raum der Begriff \u201eEcosystem people\u201c, der f\u00fcr Menschen steht, die von einem oder wenigen benachbarten \u00d6kosystemen leben. In diesem Sinne sind auch die Mitglieder lokaler Gemeinschaften \u201e\u00d6kosystem-Menschen\u201c. \r\n<p class=\"lead\">In der Konvention \u00fcber die biologische Vielfalt der Vereinten Nationen (UNCED) wird der synonyme Terminus \u201eIndigene und lokale Gemeinschaften mit traditionellen Wirtschaftsformen\u201c verwendet. [...]<\/p>\r\nQuelle: https:\/\/de.wikipedia.org\/wiki\/Lokale_Gemeinschaften","falMedia":{"0000000001e47bd3000000005eecbe53":{"alternative":null,"description":null,"link":"","originalResource":{"publicUrl":"fileadmin\/user_upload\/lexikonbilder\/1024px-Quilombo_Sao_Jose_da_Serra_04.jpg"},"title":" Comunidade descendentes de escravos localizada no Estado do Rio de Janeiro, na cidade de Valen\u00e7a."}},"pid":1,"teaser":"die Menschen die dort wohnen...","title":"Lokale Gemeinschaften","uid":1}]}